{
    "data":[
        {
            "category": "Май 2020",
            "first": 60,
            "second": 55
        },
        {
            "category": "Июнь 2020",
            "first": 73,
            "second": 49
        },
        {
            "category": "Июль 2020",
            "first": 84,
            "second": 36
        },
        {
            "category": "Август 2020",
            "first": 80,
            "second": 40
        }
    ],
    "common":{
        "all_count":100,
        "prod_count":80,
        "test_count":40,
        "bad_count":5
    }
}